{
    "data": {
        "campaignDto": {
            "id": "66bf7c237e85f77ab1ac258c",
            "title": "Tech Influencers",
            "description": "Tech Influencers",
            "startDate": "2024-08-16T16:18:46.512Z",
            "endDate": "2024-08-21T16:18:46.512Z",
            "status": "active",
            "brand": "Netflix",
            "orgsId": "666f306c1beece409cdcb970",
            "keywords": ["tech-influencers", "netflix"],
            "sharedWith": [],
            "priority": 1,
            "createdBy": {
                "timestamp": 1716636302,
                "date": "2024-05-25T11:25:02.000+00:00"
            },
            "startedAt": "2024-08-23T22:11:54.191+00:00",
            "createdAt": "2024-08-16T16:19:47.741+00:00",
            "updatedAt": "2024-08-23T22:11:54.192+00:00",
            "lastActionAt": null,
            "lastSyncedAt": "2024-08-23T22:11:53.465+00:00"
        },
        "queueDto": null,
        "igProfileAnalyticsResp": {
            "totalFollowers": 1461163,
            "avgEngagementRate": 0.6458333333333334,
            "avgPostFrequencyPerDay": 0.5933333333333334,
            "avgViews": 116080.75,
            "basedOnProfileCount": {
                "totalFollowersPosts": 12,
                "avgEngagementRatePosts": 12,
                "avgPostFrequencyPerDayPosts": 12,
                "avgViewsPosts": 12
            }
        },
        "instagramFilterValueResp": {
            "profileTypeByFollowers": ["10000-99999", "100000-999999"],
            "engagementRate": ["0-0.99%", "2-4.99%"],
            "niche": ["Education", "Digital creator", "Community"],
            "postFrequencyPerDay": ["0.1-0.49", "1-4.99", "0-0.09"],
            "appliedProfileTypeByFollowers": null,
            "appliedEngagementRate": null,
            "appliedNiche": null,
            "appliedPostFrequencyPerDay": null,
            "allProfileTypeByFollowers": ["10000-99999", "100000-999999"],
            "allEngagementRate": ["0-0.99%", "2-4.99%"],
            "allNiche": ["Education", "Community", "Digital creator"],
            "allPostFrequencyPerDay": ["0.1-0.49", "1-4.99", "0-0.09"],
            "lastAppliedFilterField": null
        },
        "profilePaginatedResponse": {
            "items": [
                {
                    "id": "66c90bfd09a7b3675da51d7f",
                    "username": "BeingCommerce",
                    "socialMediaId": "31016814583",
                    "fullName": "COMMERCE STUDENTS",
                    "mediaCount": 1713,
                    "followerCount": 172112,
                    "followingCount": 38,
                    "biography": "\uD83D\uDCB0Perfect place for Commercian\uD83D\uDCB8 \uD83C\uDFC6| Careers Tips | Career Guideline \uD83E\uDD35 MEMER by PASSION",
                    "externalUrl": "https://linktr.ee/being_commerce",
                    "accountType": 3,
                    "publicEmail": "bizenquiry279@gmail.com",
                    "contactPhoneNumber": null,
                    "publicPhoneCountryCode": null,
                    "publicPhoneNumber": null,
                    "businessContactMethod": "UNKNOWN",
                    "businessCategoryName": null,
                    "categoryName": null,
                    "category": "Education",
                    "addressStreet": null,
                    "cityId": "0",
                    "cityName": null,
                    "latitude": 0.0,
                    "longitude": 0.0,
                    "zip": null,
                    "totalViews": 875770,
                    "videoCount": 8,
                    "totalLikes": 85857,
                    "totalComments": 291,
                    "analyzedPostCount": 17,
                    "analyzedDate": "2024-08-23T22:13:31.840+00:00",
                    "recentPostDate": "2024-08-21T05:25:38.000+00:00",
                    "oldestPostDate": "2024-08-06T07:12:15.000+00:00",
                    "avgViews": 109471,
                    "engRate": 0.5,
                    "daysSinceOldestPost": 17,
                    "frequencyPerDay": 1.0,
                    "createdAt": "2024-08-23T22:23:57.877+00:00",
                    "updatedAt": "2024-08-25T07:52:00.967+00:00",
                    "lastRefreshedAt": "2024-08-25T07:52:00.967+00:00",
                    "private": false,
                    "verified": false,
                    "business": false
                },
                {
                    "id": "66c90bfd09a7b3675da51d7f",
                    "username": "BeingCommerce",
                    "socialMediaId": "31016814583",
                    "fullName": "COMMERCE STUDENTS",
                    "mediaCount": 1713,
                    "followerCount": 172112,
                    "followingCount": 38,
                    "biography": "\uD83D\uDCB0Perfect place for Commercian\uD83D\uDCB8 \uD83C\uDFC6| Careers Tips | Career Guideline \uD83E\uDD35 MEMER by PASSION",
                    "externalUrl": "https://linktr.ee/being_commerce",
                    "accountType": 3,
                    "publicEmail": "bizenquiry279@gmail.com",
                    "contactPhoneNumber": null,
                    "publicPhoneCountryCode": null,
                    "publicPhoneNumber": null,
                    "businessContactMethod": "UNKNOWN",
                    "businessCategoryName": null,
                    "categoryName": null,
                    "category": "Education",
                    "addressStreet": null,
                    "cityId": "0",
                    "cityName": null,
                    "latitude": 0.0,
                    "longitude": 0.0,
                    "zip": null,
                    "totalViews": 875770,
                    "videoCount": 8,
                    "totalLikes": 85857,
                    "totalComments": 291,
                    "analyzedPostCount": 17,
                    "analyzedDate": "2024-08-23T22:13:31.840+00:00",
                    "recentPostDate": "2024-08-21T05:25:38.000+00:00",
                    "oldestPostDate": "2024-08-06T07:12:15.000+00:00",
                    "avgViews": 109471,
                    "engRate": 0.5,
                    "daysSinceOldestPost": 17,
                    "frequencyPerDay": 1.0,
                    "createdAt": "2024-08-23T22:23:57.877+00:00",
                    "updatedAt": "2024-08-25T07:52:00.967+00:00",
                    "lastRefreshedAt": "2024-08-25T07:52:00.967+00:00",
                    "private": false,
                    "verified": false,
                    "business": false
                },
                {
                    "id": "66c90bfd09a7b3675da51d7f",
                    "username": "BeingCommerce",
                    "socialMediaId": "31016814583",
                    "fullName": "COMMERCE STUDENTS",
                    "mediaCount": 1713,
                    "followerCount": 172112,
                    "followingCount": 38,
                    "biography": "\uD83D\uDCB0Perfect place for Commercian\uD83D\uDCB8 \uD83C\uDFC6| Careers Tips | Career Guideline \uD83E\uDD35 MEMER by PASSION",
                    "externalUrl": "https://linktr.ee/being_commerce",
                    "accountType": 3,
                    "publicEmail": "bizenquiry279@gmail.com",
                    "contactPhoneNumber": null,
                    "publicPhoneCountryCode": null,
                    "publicPhoneNumber": null,
                    "businessContactMethod": "UNKNOWN",
                    "businessCategoryName": null,
                    "categoryName": null,
                    "category": "Education",
                    "addressStreet": null,
                    "cityId": "0",
                    "cityName": null,
                    "latitude": 0.0,
                    "longitude": 0.0,
                    "zip": null,
                    "totalViews": 875770,
                    "videoCount": 8,
                    "totalLikes": 85857,
                    "totalComments": 291,
                    "analyzedPostCount": 17,
                    "analyzedDate": "2024-08-23T22:13:31.840+00:00",
                    "recentPostDate": "2024-08-21T05:25:38.000+00:00",
                    "oldestPostDate": "2024-08-06T07:12:15.000+00:00",
                    "avgViews": 109471,
                    "engRate": 0.5,
                    "daysSinceOldestPost": 17,
                    "frequencyPerDay": 1.0,
                    "createdAt": "2024-08-23T22:23:57.877+00:00",
                    "updatedAt": "2024-08-25T07:52:00.967+00:00",
                    "lastRefreshedAt": "2024-08-25T07:52:00.967+00:00",
                    "private": false,
                    "verified": false,
                    "business": false
                },
                {
                    "id": "66c90bfe09a7b3675da51d83",
                    "username": "coding_home",
                    "socialMediaId": "38100398401",
                    "fullName": "NIKHIL | HTML CSS JS",
                    "mediaCount": 297,
                    "followerCount": 142868,
                    "followingCount": 197,
                    "biography": "\uD83D\uDCBB Front-End Web Developer \uD83D\uDCDA HTML, CSS & JS Mastery \uD83D\uDC68\uD83C\uDFFB‍\uD83D\uDCBB Start Your Journey!  Free Notes\uD83D\uDC47\uD83C\uDFFB",
                    "externalUrl": "http://bit.ly/codinghubs",
                    "accountType": 3,
                    "publicEmail": "codinghomeofficial@gmail.com",
                    "contactPhoneNumber": null,
                    "publicPhoneCountryCode": null,
                    "publicPhoneNumber": null,
                    "businessContactMethod": "UNKNOWN",
                    "businessCategoryName": null,
                    "categoryName": null,
                    "category": "Education",
                    "addressStreet": null,
                    "cityId": "0",
                    "cityName": null,
                    "latitude": 0.0,
                    "longitude": 0.0,
                    "zip": null,
                    "totalViews": 208877,
                    "videoCount": 17,
                    "totalLikes": 3069,
                    "totalComments": 531,
                    "analyzedPostCount": 17,
                    "analyzedDate": "2024-08-23T22:15:07.080+00:00",
                    "recentPostDate": "2024-05-29T10:36:37.000+00:00",
                    "oldestPostDate": "2024-01-23T12:02:58.000+00:00",
                    "avgViews": 12287,
                    "engRate": 0.03,
                    "daysSinceOldestPost": 213,
                    "frequencyPerDay": 0.08,
                    "createdAt": "2024-08-23T22:23:58.804+00:00",
                    "updatedAt": "2024-08-25T07:52:39.473+00:00",
                    "lastRefreshedAt": "2024-08-25T07:52:39.473+00:00",
                    "private": false,
                    "verified": false,
                    "business": false
                },
                {
                    "id": "66c90bfe09a7b3675da51d83",
                    "username": "coding_home",
                    "socialMediaId": "38100398401",
                    "fullName": "NIKHIL | HTML CSS JS",
                    "mediaCount": 297,
                    "followerCount": 142868,
                    "followingCount": 197,
                    "biography": "\uD83D\uDCBB Front-End Web Developer \uD83D\uDCDA HTML, CSS & JS Mastery \uD83D\uDC68\uD83C\uDFFB‍\uD83D\uDCBB Start Your Journey!  Free Notes\uD83D\uDC47\uD83C\uDFFB",
                    "externalUrl": "http://bit.ly/codinghubs",
                    "accountType": 3,
                    "publicEmail": "codinghomeofficial@gmail.com",
                    "contactPhoneNumber": null,
                    "publicPhoneCountryCode": null,
                    "publicPhoneNumber": null,
                    "businessContactMethod": "UNKNOWN",
                    "businessCategoryName": null,
                    "categoryName": null,
                    "category": "Education",
                    "addressStreet": null,
                    "cityId": "0",
                    "cityName": null,
                    "latitude": 0.0,
                    "longitude": 0.0,
                    "zip": null,
                    "totalViews": 208877,
                    "videoCount": 17,
                    "totalLikes": 3069,
                    "totalComments": 531,
                    "analyzedPostCount": 17,
                    "analyzedDate": "2024-08-23T22:15:07.080+00:00",
                    "recentPostDate": "2024-05-29T10:36:37.000+00:00",
                    "oldestPostDate": "2024-01-23T12:02:58.000+00:00",
                    "avgViews": 12287,
                    "engRate": 0.03,
                    "daysSinceOldestPost": 213,
                    "frequencyPerDay": 0.08,
                    "createdAt": "2024-08-23T22:23:58.804+00:00",
                    "updatedAt": "2024-08-25T07:52:39.473+00:00",
                    "lastRefreshedAt": "2024-08-25T07:52:39.473+00:00",
                    "private": false,
                    "verified": false,
                    "business": false
                },
                {
                    "id": "66c90bfe09a7b3675da51d81",
                    "username": "memecitis",
                    "socialMediaId": "8456864764",
                    "fullName": "Medical Memecitis",
                    "mediaCount": 7484,
                    "followerCount": 131705,
                    "followingCount": 2,
                    "biography": "For the proud Doctors and to be Doctors \uD83D\uDC68‍⚕️ Not just a meme page \uD83C\uDF38 Sharing everyday thoughts & issues",
                    "externalUrl": "https://forms.gle/vAyWRPoWmXzyDkzA7",
                    "accountType": 3,
                    "publicEmail": null,
                    "contactPhoneNumber": null,
                    "publicPhoneCountryCode": null,
                    "publicPhoneNumber": null,
                    "businessContactMethod": "UNKNOWN",
                    "businessCategoryName": null,
                    "categoryName": null,
                    "category": "Community",
                    "addressStreet": null,
                    "cityId": "0",
                    "cityName": null,
                    "latitude": 0.0,
                    "longitude": 0.0,
                    "zip": null,
                    "totalViews": 3672778,
                    "videoCount": 8,
                    "totalLikes": 318176,
                    "totalComments": 3179,
                    "analyzedPostCount": 17,
                    "analyzedDate": "2024-08-23T22:14:43.659+00:00",
                    "recentPostDate": "2024-08-22T19:16:58.000+00:00",
                    "oldestPostDate": "2024-08-13T18:06:55.000+00:00",
                    "avgViews": 459097,
                    "engRate": 2.44,
                    "daysSinceOldestPost": 10,
                    "frequencyPerDay": 1.7,
                    "createdAt": "2024-08-23T22:29:55.756+00:00",
                    "updatedAt": "2024-08-25T07:52:19.470+00:00",
                    "lastRefreshedAt": "2024-08-25T07:52:19.470+00:00",
                    "private": false,
                    "verified": false,
                    "business": false
                }
            ],
            "currentPage": 1,
            "totalPages": 2,
            "totalItems": 12
        }
    }
}
